{
	"variables": [],
	"info": {
		"name": "Tp 2 mongo ",
		"_postman_id": "0e549960-591d-37be-19b1-666d727af3d4",
		"description": "Tp sur une modélisation et création de bdd et endpoint du type welcome to the jungle.",
		"schema": "https://schema.getpostman.com/json/collection/v2.0.0/collection.json"
	},
	"item": [
		{
			"name": "MisisonAdd",
			"request": {
				"url": "http://127.0.0.1:5000/missions",
				"method": "POST",
				"header": [
					{
						"key": "Content-Type",
						"value": "application/json",
						"description": ""
					}
				],
				"body": {
					"mode": "raw",
					"raw": "{\r\n    \"name\":\"une bonne mission\",\r\n    \"geoLoc\" : \"Marseille\",\r\n    \"durationDay\":\"125\",\r\n    \"skills\":[\"Gestion de crise\",\"SCRUM\",\"DEVOPS\"],\r\n    \"technologies\":[\"Scala\",\"Ansible\",\"TeraForm\",\"Portainer\",\"Docker\"],\r\n    \"isSponsored\":false,\r\n    \"startDate\":\"2021-05-08T00:00:00.000Z\",\r\n    \"salaryDay\":{\r\n        \"min\":1900,\r\n        \"max\":2200\r\n    },\r\n    \"description\":\"C'est quand meme bien payé\",\r\n    \"remote\": true,\r\n    \"enterpriseName\":\"Dassault Systèmes\"\r\n}"
				},
				"description": ""
			},
			"response": []
		},
		{
			"name": "UserAdd",
			"request": {
				"url": "http://127.0.0.1:5000/users",
				"method": "POST",
				"header": [
					{
						"key": "Content-Type",
						"value": "application/json",
						"description": ""
					}
				],
				"body": {
					"mode": "raw",
					"raw": "{\r\n\t\"name\":\"obi wide kenobi\",\r\n\t\"mail\":\"youwerethechoosenone@live.fr\",\r\n\t\"profilePicture\":\"https://www.youtube.com/watch?v=ZSdPr1iQe6A\",\r\n\t\"pseudo\":\"the_widest_one\",\r\n    \"pastMissions\":[\"6075b5710077b21fc80ed136\"]\r\n    }"
				},
				"description": ""
			},
			"response": []
		},
		{
			"name": "User get embed",
			"request": {
				"url": {
					"raw": "http://127.0.0.1:5000/users?embed=true",
					"protocol": "http",
					"host": [
						"127",
						"0",
						"0",
						"1"
					],
					"port": "5000",
					"path": [
						"users"
					],
					"query": [
						{
							"key": "embed",
							"value": "true",
							"equals": true,
							"description": ""
						}
					],
					"variable": []
				},
				"method": "GET",
				"header": [],
				"body": {
					"mode": "raw",
					"raw": "6075a56b91874a042061c154"
				},
				"description": ""
			},
			"response": []
		},
		{
			"name": "User get not embed",
			"request": {
				"url": "http://127.0.0.1:5000/users",
				"method": "GET",
				"header": [],
				"body": {
					"mode": "raw",
					"raw": "6075a56b91874a042061c154"
				},
				"description": ""
			},
			"response": []
		},
		{
			"name": "Mission get",
			"request": {
				"url": "http://127.0.0.1:5000/missions",
				"method": "GET",
				"header": [],
				"body": {
					"mode": "raw",
					"raw": "6075a56b91874a042061c154"
				},
				"description": ""
			},
			"response": []
		},
		{
			"name": "Mission search",
			"request": {
				"url": {
					"raw": "http://127.0.0.1:5000/missions/search?name=the%20best",
					"protocol": "http",
					"host": [
						"127",
						"0",
						"0",
						"1"
					],
					"port": "5000",
					"path": [
						"missions",
						"search"
					],
					"query": [
						{
							"key": "name",
							"value": "the%20best",
							"equals": true,
							"description": ""
						}
					],
					"variable": []
				},
				"method": "GET",
				"header": [],
				"body": {
					"mode": "raw",
					"raw": "6075a56b91874a042061c154"
				},
				"description": ""
			},
			"response": []
		},
		{
			"name": "Mission by category",
			"request": {
				"url": {
					"raw": "http://127.0.0.1:5000/missions/category?tech=Ansible&skill=SCRUM",
					"protocol": "http",
					"host": [
						"127",
						"0",
						"0",
						"1"
					],
					"port": "5000",
					"path": [
						"missions",
						"category"
					],
					"query": [
						{
							"key": "tech",
							"value": "Ansible",
							"equals": true,
							"description": ""
						},
						{
							"key": "skill",
							"value": "SCRUM",
							"equals": true,
							"description": ""
						}
					],
					"variable": []
				},
				"method": "GET",
				"header": [],
				"body": {
					"mode": "raw",
					"raw": "6075a56b91874a042061c154"
				},
				"description": ""
			},
			"response": []
		}
	]
}