{"_id":{"$oid":"6075a56b91874a042061c154"},"skills":["Gestion de projet","Management d'équipe","Gestion de crise","ITIL"],"technologies":["Java","Angular","Ansible"],"name":"The best mission","durationDay":24,"isSponsored":true,"startDate":{"$date":"2021-04-19T14:05:17.687Z"},"salaryDay":{"min":600,"max":1200},"description":"Un super job","remote":false,"enterpriseName":"Google","postingDate":{"$date":"2021-04-13T14:06:35.007Z"},"__v":0}
{"_id":{"$oid":"6075b47f0077b21fc80ed135"},"skills":["Gestion de crise","SCRUM"],"technologies":["Php","Angular"],"name":"The best job","durationDay":12,"isSponsored":true,"startDate":{"$date":"2021-05-19T00:00:00Z"},"salaryDay":{"min":1000,"max":1200},"description":"C'est pas mal comme boulot","remote":true,"enterpriseName":"Ynov","postingDate":{"$date":"2021-04-13T15:10:55.084Z"},"__v":0}
{"_id":{"$oid":"6075b5710077b21fc80ed136"},"skills":["Gestion de crise","SCRUM","DEVOPS"],"technologies":["Scala","Ansible","TeraForm","Portainer","Docker"],"name":"une bonne mission","durationDay":125,"isSponsored":false,"startDate":{"$date":"2021-05-08T00:00:00Z"},"salaryDay":{"min":1900,"max":2200},"description":"C'est quand meme bien payé","remote":true,"enterpriseName":"Dassault Systèmes","postingDate":{"$date":"2021-04-13T15:14:57.723Z"},"__v":0}
